Module_2/Week_2/Pipelined_Multipliers/Array_Multiplier/tb_multiplier.vcd
$version Generated by VerilatedVcd $end
$timescale 1ps $end
 $scope module $rootio $end
 $upscope $end
 $scope module tb_multiplier $end
  $var wire 1 A clk $end
  $var wire 1 B rst_n $end
  $var wire 8 # A_in [7:0] $end
  $var wire 8 $ B_in [7:0] $end
  $var wire 1 % EA $end
  $var wire 1 & EB $end
  $var wire 1 ' start $end
  $var wire 16 - P_out [15:0] $end
  $var wire 1 . P_out_valid $end
  $var wire 16 ( expected [15:0] $end
  $var wire 16 ) p_val [15:0] $end
  $var wire 8 * a_val [7:0] $end
  $var wire 8 + b_val [7:0] $end
  $scope module dut $end
   $var wire 32 K DATA_WIDTH [31:0] $end
   $var wire 1 A clk $end
   $var wire 1 B rst_n $end
   $var wire 1 % EA $end
   $var wire 1 & EB $end
   $var wire 1 ' start $end
   $var wire 8 # A_in [7:0] $end
   $var wire 8 $ B_in [7:0] $end
   $var wire 16 - P_out [15:0] $end
   $var wire 1 . P_out_valid $end
   $var wire 32 L SPLIT [31:0] $end
   $var wire 8 / a_reg [7:0] $end
   $var wire 8 0 b_reg [7:0] $end
   $var wire 16 1 pp[0] [15:0] $end
   $var wire 16 2 pp[1] [15:0] $end
   $var wire 16 3 pp[2] [15:0] $end
   $var wire 16 4 pp[3] [15:0] $end
   $var wire 16 5 pp[4] [15:0] $end
   $var wire 16 6 pp[5] [15:0] $end
   $var wire 16 7 pp[6] [15:0] $end
   $var wire 16 8 pp[7] [15:0] $end
   $var wire 16 C sum_stage1[0] [15:0] $end
   $var wire 16 D sum_stage1[1] [15:0] $end
   $var wire 16 E sum_stage1[2] [15:0] $end
   $var wire 16 F sum_stage1[3] [15:0] $end
   $var wire 16 9 sum_mid [15:0] $end
   $var wire 16 : pp_hi[0] [15:0] $end
   $var wire 16 ; pp_hi[1] [15:0] $end
   $var wire 16 < pp_hi[2] [15:0] $end
   $var wire 16 = pp_hi[3] [15:0] $end
   $var wire 1 > v_mid $end
   $var wire 1 ? v_out $end
   $var wire 32 @ j [31:0] $end
   $var wire 16 G sum_stage2[0] [15:0] $end
   $var wire 16 H sum_stage2[1] [15:0] $end
   $var wire 16 I sum_stage2[2] [15:0] $end
   $var wire 16 J sum_stage2[3] [15:0] $end
  $upscope $end
  $scope module unnamedblk1 $end
   $var wire 32 , test_num [31:0] $end
  $upscope $end
 $upscope $end
$enddefinitions $end


#0
b00000000 #
b00000000 $
0%
0&
0'
b0000000000000000 (
b0000000000000000 )
b00000000 *
b00000000 +
b00000000000000000000000000000000 ,
b0000000000000000 -
0.
b00000000 /
b00000000 0
b0000000000000000 1
b0000000000000000 2
b0000000000000000 3
b0000000000000000 4
b0000000000000000 5
b0000000000000000 6
b0000000000000000 7
b0000000000000000 8
b0000000000000000 9
b0000000000000000 :
b0000000000000000 ;
b0000000000000000 <
b0000000000000000 =
0>
0?
b00000000000000000000000000000000 @
0A
0B
b0000000000000000 C
b0000000000000000 D
b0000000000000000 E
b0000000000000000 F
b0000000000000000 G
b0000000000000000 H
b0000000000000000 I
b0000000000000000 J
b00000000000000000000000000001000 K
b00000000000000000000000000000100 L
#1
b00000000000000000000000000000100 @
1A
#2
0A
#3
1A
#4
0A
#5
b00001010 #
b00001111 $
1%
1&
1'
b00001010 /
b00001111 0
b0000000000001010 1
b0000000000010100 2
b0000000000101000 3
b0000000001010000 4
1>
1A
1B
b0000000000001010 C
b0000000000011110 D
b0000000001000110 E
b0000000010010110 F
#6
0%
0&
0'
0A
#7
b00000000 #
b11111111 $
1%
1&
1'
b00000000 /
b11111111 0
b0000000000000000 1
b0000000000000000 2
b0000000000000000 3
b0000000000000000 4
b0000000010010110 9
1?
1A
b0000000000000000 C
b0000000000000000 D
b0000000000000000 E
b0000000000000000 F
b0000000010010110 G
b0000000010010110 H
b0000000010010110 I
b0000000010010110 J
#8
0%
0&
0'
0A
#9
b11111111 #
1%
1&
1'
b0000000010010110 -
1.
b11111111 /
b0000000011111111 1
b0000000111111110 2
b0000001111111100 3
b0000011111111000 4
b0000111111110000 5
b0001111111100000 6
b0011111111000000 7
b0111111110000000 8
b0000000000000000 9
1A
b0000000011111111 C
b0000001011111101 D
b0000011011111001 E
b0000111011110001 F
b0000000000000000 G
b0000000000000000 H
b0000000000000000 I
b0000000000000000 J
#10
0%
0&
0'
0A
#11
b10000000 #
b10000000 $
1%
1&
1'
b0000000010010110 (
b0000000010010110 )
b00001010 *
b00001111 +
b00000000000000000000000000000001 ,
b0000000000000000 -
b10000000 /
b10000000 0
b0000000000000000 1
b0000000000000000 2
b0000000000000000 3
b0000000000000000 4
b0000000000000000 5
b0000000000000000 6
b0000000000000000 7
b0100000000000000 8
b0000111011110001 9
b0000111111110000 :
b0001111111100000 ;
b0011111111000000 <
b0111111110000000 =
1A
b0000000000000000 C
b0000000000000000 D
b0000000000000000 E
b0000000000000000 F
b0001111011100001 G
b0011111011000001 H
b0111111010000001 I
b1111111000000001 J
#12
0%
0&
0'
0A
#13
b0000000000000000 (
b0000000000000000 )
b00000000 *
b11111111 +
b00000000000000000000000000000010 ,
b1111111000000001 -
b0000000000000000 9
b0000000000000000 :
b0000000000000000 ;
b0000000000000000 <
b0100000000000000 =
0>
1A
b0000000000000000 G
b0000000000000000 H
b0000000000000000 I
b0100000000000000 J
#14
0A
#15
b1111111000000001 (
b1111111000000001 )
b11111111 *
b00000000000000000000000000000011 ,
b0100000000000000 -
0?
1A
#16
0A
#17
b0100000000000000 (
b0100000000000000 )
b10000000 *
b10000000 +
b00000000000000000000000000000100 ,
0.
1A
