Module_2/Week_2/Tasks/Array_Multiplier/tb_multiplier.vcd
$version Generated by VerilatedVcd $end
$timescale 1ps $end
 $scope module $rootio $end
 $upscope $end
 $scope module tb_multiplier $end
  $var wire 1 < clk $end
  $var wire 1 = rst_n $end
  $var wire 8 > A_in [7:0] $end
  $var wire 8 ? B_in [7:0] $end
  $var wire 1 @ EA $end
  $var wire 1 A EB $end
  $var wire 16 1 P_out [15:0] $end
  $var wire 16 # expected [15:0] $end
  $var wire 16 $ p_val [15:0] $end
  $var wire 8 % a_val [7:0] $end
  $var wire 8 & b_val [7:0] $end
  $scope module dut $end
   $var wire 32 B DATA_WIDTH [31:0] $end
   $var wire 1 < clk $end
   $var wire 1 = rst_n $end
   $var wire 1 @ EA $end
   $var wire 1 A EB $end
   $var wire 8 > A_in [7:0] $end
   $var wire 8 ? B_in [7:0] $end
   $var wire 16 1 P_out [15:0] $end
   $var wire 8 2 A_reg [7:0] $end
   $var wire 8 3 B_reg [7:0] $end
   $var wire 16 ( product_wire [15:0] $end
   $scope module u_array_multiplier $end
    $var wire 32 B DATA_WIDTH [31:0] $end
    $var wire 8 2 a [7:0] $end
    $var wire 8 3 b [7:0] $end
    $var wire 16 ( product [15:0] $end
    $var wire 16 4 pp[0] [15:0] $end
    $var wire 16 5 pp[1] [15:0] $end
    $var wire 16 6 pp[2] [15:0] $end
    $var wire 16 7 pp[3] [15:0] $end
    $var wire 16 8 pp[4] [15:0] $end
    $var wire 16 9 pp[5] [15:0] $end
    $var wire 16 : pp[6] [15:0] $end
    $var wire 16 ; pp[7] [15:0] $end
    $var wire 16 ) sum[0] [15:0] $end
    $var wire 16 * sum[1] [15:0] $end
    $var wire 16 + sum[2] [15:0] $end
    $var wire 16 , sum[3] [15:0] $end
    $var wire 16 - sum[4] [15:0] $end
    $var wire 16 . sum[5] [15:0] $end
    $var wire 16 / sum[6] [15:0] $end
    $var wire 16 0 sum[7] [15:0] $end
   $upscope $end
  $upscope $end
  $scope module unnamedblk1 $end
   $var wire 32 ' test_num [31:0] $end
  $upscope $end
 $upscope $end
$enddefinitions $end


#0
b0000000000000000 #
b0000000000000000 $
b00000000 %
b00000000 &
b00000000000000000000000000000000 '
b0000000000000000 (
b0000000000000000 )
b0000000000000000 *
b0000000000000000 +
b0000000000000000 ,
b0000000000000000 -
b0000000000000000 .
b0000000000000000 /
b0000000000000000 0
b0000000000000000 1
b00000000 2
b00000000 3
b0000000000000000 4
b0000000000000000 5
b0000000000000000 6
b0000000000000000 7
b0000000000000000 8
b0000000000000000 9
b0000000000000000 :
b0000000000000000 ;
0<
0=
b00000000 >
b00000000 ?
0@
0A
b00000000000000000000000000001000 B
#5
1<
#10
0<
#15
1<
#20
0<
#25
b0000000010010110 (
b0000000000001010 )
b0000000000011110 *
b0000000001000110 +
b0000000010010110 ,
b0000000010010110 -
b0000000010010110 .
b0000000010010110 /
b0000000010010110 0
b00001010 2
b00001111 3
b0000000000001010 4
b0000000000010100 5
b0000000000101000 6
b0000000001010000 7
1<
1=
b00001010 >
b00001111 ?
1@
1A
#30
0<
#35
b0000000010010110 1
1<
0@
0A
#40
0<
#45
b0000000010010110 #
b00001010 %
b00001111 &
b0000000000000000 (
b0000000000000000 )
b0000000000000000 *
b0000000000000000 +
b0000000000000000 ,
b0000000000000000 -
b0000000000000000 .
b0000000000000000 /
b0000000000000000 0
b00000000 2
b11111111 3
b0000000000000000 4
b0000000000000000 5
b0000000000000000 6
b0000000000000000 7
1<
b00000000 >
b11111111 ?
1@
1A
#50
0<
#55
b0000000010010110 $
b00000000000000000000000000000001 '
b0000000000000000 1
1<
0@
0A
#60
0<
#65
b0000000000000000 #
b00000000 %
b11111111 &
b1111111000000001 (
b0000000011111111 )
b0000001011111101 *
b0000011011111001 +
b0000111011110001 ,
b0001111011100001 -
b0011111011000001 .
b0111111010000001 /
b1111111000000001 0
b11111111 2
b0000000011111111 4
b0000000111111110 5
b0000001111111100 6
b0000011111111000 7
b0000111111110000 8
b0001111111100000 9
b0011111111000000 :
b0111111110000000 ;
1<
b11111111 >
1@
1A
#70
0<
#75
b0000000000000000 $
b00000000000000000000000000000010 '
b1111111000000001 1
1<
0@
0A
#80
0<
#85
b1111111000000001 #
b11111111 %
b0100000000000000 (
b0000000000000000 )
b0000000000000000 *
b0000000000000000 +
b0000000000000000 ,
b0000000000000000 -
b0000000000000000 .
b0000000000000000 /
b0100000000000000 0
b10000000 2
b10000000 3
b0000000000000000 4
b0000000000000000 5
b0000000000000000 6
b0000000000000000 7
b0000000000000000 8
b0000000000000000 9
b0000000000000000 :
b0100000000000000 ;
1<
b10000000 >
b10000000 ?
1@
1A
#90
0<
#95
b1111111000000001 $
b00000000000000000000000000000011 '
b0100000000000000 1
1<
0@
0A
#100
0<
#105
b0100000000000000 #
b10000000 %
b10000000 &
1<
#110
0<
#115
b0100000000000000 $
b00000000000000000000000000000100 '
1<
