Module_2/Week_3/Tasks/Sequence_Detector_FSM/seq_detector.vcd
$version Generated by VerilatedVcd $end
$timescale 1ps $end
 $scope module $rootio $end
 $upscope $end
 $scope module seq_detector_tb $end
  $var wire 1 # clk $end
  $var wire 1 $ rst_n $end
  $scope module seq_if_inst $end
   $var wire 1 ( clk $end
   $var wire 1 ) rst_n $end
   $var wire 1 * in_bit $end
   $var wire 1 % seq_detected $end
  $upscope $end
  $scope module dut $end
   $var wire 1 # clk $end
   $var wire 1 $ rst_n $end
   $var wire 1 * in_bit $end
   $var wire 1 % seq_detected $end
   $var wire 3 & current_state [2:0] $end
   $var wire 3 ' next_state [2:0] $end
  $upscope $end
 $upscope $end
$enddefinitions $end


#0
0#
0$
0%
b000 &
b000 '
0(
0)
0*
#5000
1#
1(
#10000
0#
0(
#15000
1#
1$
1(
1)
#20000
0#
0(
#25000
1#
b001 '
1(
#30000
0#
0(
#35000
1#
b001 &
b010 '
1(
#40000
0#
0(
#45000
1#
b010 &
b011 '
1(
#50000
0#
0(
#55000
1#
b011 &
b100 '
1(
#60000
0#
0(
#65000
1#
1%
b100 &
b000 '
1(
#70000
0#
0(
#75000
1#
0%
b000 &
1(
#80000
0#
0(
#85000
1#
b001 '
1(
#90000
0#
0(
#95000
1#
b001 &
1(
#100000
0#
0(
#105000
1#
1(
#110000
0#
0(
#115000
1#
b010 '
1(
#120000
0#
0(
#125000
1#
b010 &
b000 '
1(
#130000
0#
0(
#135000
1#
b000 &
b001 '
1(
#140000
0#
0(
#145000
1#
b001 &
b010 '
1(
#150000
0#
0(
#155000
1#
b010 &
b011 '
1(
#160000
0#
0(
#165000
1#
b011 &
b100 '
1(
#170000
0#
0(
#175000
1#
1%
b100 &
b010 '
1(
#180000
0#
0(
#185000
1#
0%
b010 &
b000 '
1(
#190000
0#
0(
#195000
1#
b000 &
1(
#200000
0#
0(
#205000
1#
1(
#210000
0#
0(
#215000
1#
1(
#220000
0#
0(
#225000
1#
1(
#230000
0#
0(
#235000
1#
1(
#240000
0#
0(
#245000
1#
1(
#250000
0#
0(
#255000
1#
b001 '
1(
#260000
0#
0(
#265000
1#
b001 &
1(
#270000
0#
0(
#275000
1#
1(
#280000
0#
0(
#285000
1#
1(
#290000
0#
0(
#295000
1#
1(
#300000
0#
0(
#305000
1#
b010 '
1(
#310000
0#
0(
#315000
1#
b010 &
b000 '
1(
#320000
0#
0(
#325000
1#
b000 &
b001 '
1(
#330000
0#
0(
#335000
1#
b001 &
b010 '
1(
#340000
0#
0(
#345000
1#
b010 &
b000 '
1(
#350000
0#
0(
#355000
1#
b000 &
b001 '
1(
#360000
0#
0(
#365000
1#
b001 &
b010 '
1(
#370000
0#
0(
#375000
1#
b010 &
b011 '
1(
#380000
0#
0(
#385000
1#
b011 &
b010 '
1(
#390000
0#
0(
#395000
1#
b010 &
b000 '
1(
#400000
0#
0(
#405000
1#
b000 &
1(
#410000
0#
0(
#415000
1#
1(
#420000
0#
0(
#425000
1#
1(
#430000
0#
0(
#435000
1#
1(
#440000
0#
0(
#445000
1#
1(
#450000
0#
0(
#455000
1#
1(
#460000
0#
0(
#465000
1#
1(
#470000
0#
0(
#475000
1#
b001 '
1(
#480000
0#
0(
#485000
1#
b001 &
b010 '
1(
#490000
0#
0(
#495000
1#
b010 &
b011 '
1(
#500000
0#
0(
#505000
1#
b011 &
b010 '
1(
#510000
0#
0(
#515000
1#
b010 &
b000 '
1(
#520000
0#
0(
#525000
1#
b000 &
b001 '
1(
#530000
0#
0(
#535000
1#
b001 &
1(
#540000
0#
0(
#545000
1#
b010 '
1(
#550000
0#
0(
#555000
1#
b010 &
b011 '
1(
#560000
0#
0(
#565000
1#
b011 &
b010 '
1(
#570000
0#
0(
#575000
1#
b010 &
b011 '
1(
#580000
0#
0(
#585000
1#
b011 &
b100 '
1(
#590000
0#
0(
#595000
1#
1%
b100 &
b010 '
1(
#600000
0#
0(
#605000
1#
0%
b010 &
b011 '
1(
#610000
0#
0(
#615000
1#
b011 &
b010 '
1(
#620000
0#
0(
#625000
1#
b010 &
b000 '
1(
#630000
0#
0(
#635000
1#
b000 &
b001 '
1(
#640000
0#
0(
#645000
1#
b001 &
1(
#650000
0#
0(
#655000
1#
b010 '
1(
#660000
0#
0(
#665000
1#
b010 &
b000 '
1(
#670000
0#
0(
#675000
1#
b000 &
1(
